Lab3/lab3_cpu.vcd
$date
	Sat May 23 00:32:22 2020
$end
$version
	Icarus Verilog
$end
$timescale
	1s
$end
$scope module TestBench $end
$scope module cpu $end
$var wire 1 ! clk_i $end
$var wire 1 " rst_i $end
$var wire 1 # zero $end
$var wire 32 $ shifter_out [31:0] $end
$var wire 1 % shamt_ctrl $end
$var wire 32 & shamt [31:0] $end
$var wire 32 ' result [31:0] $end
$var wire 32 ( now_address [31:0] $end
$var wire 32 ) next_address [31:0] $end
$var wire 1 * jr_ctrl $end
$var wire 32 + instruction [31:0] $end
$var wire 32 , extend_shift_two [31:0] $end
$var wire 1 - extend_choose $end
$var wire 32 . extend [31:0] $end
$var wire 32 / current_program [31:0] $end
$var wire 32 0 branch_select_pc_or_not [31:0] $end
$var wire 32 1 branch_or_jump [31:0] $end
$var wire 1 2 branch_judge $end
$var wire 32 3 branch_address [31:0] $end
$var wire 1 4 branch $end
$var wire 32 5 ZeroExtend [31:0] $end
$var wire 32 6 WriteData [31:0] $end
$var wire 32 7 SignExtend [31:0] $end
$var wire 32 8 RtALU [31:0] $end
$var wire 1 9 RegWrite $end
$var wire 2 : RegDst [1:0] $end
$var wire 5 ; RegDout [4:0] $end
$var wire 32 < Readdata [31:0] $end
$var wire 32 = RT [31:0] $end
$var wire 32 > RS [31:0] $end
$var wire 1 ? MemWrite $end
$var wire 2 @ MemToReg [1:0] $end
$var wire 1 A MemRead $end
$var wire 1 B MemIn_ctrl $end
$var wire 1 C Jump $end
$var wire 2 D BranchType [1:0] $end
$var wire 32 E ALUoutput [31:0] $end
$var wire 1 F ALUSrc $end
$var wire 3 G ALUOp [2:0] $end
$var wire 4 H ALUCtrl [3:0] $end
$var reg 32 I Reg_current_program [31:0] $end
$scope module AC $end
$var wire 6 J funct_i [5:0] $end
$var wire 3 K ALUOp_i [2:0] $end
$var reg 4 L ALUCtrl_o [3:0] $end
$var reg 1 B MemIn_ctrl_o $end
$var reg 1 * jr_ctrl_o $end
$var reg 1 % shamt_ctrl_o $end
$upscope $end
$scope module ALU_unit $end
$var wire 4 M ctrl_i [3:0] $end
$var wire 32 N src2_i [31:0] $end
$var wire 32 O src1_i [31:0] $end
$var reg 32 P result_o [31:0] $end
$var reg 1 # zero_o $end
$upscope $end
$scope module Adder1 $end
$var wire 32 Q src2_i [31:0] $end
$var wire 32 R src1_i [31:0] $end
$var reg 32 S sum_o [31:0] $end
$upscope $end
$scope module Adder2 $end
$var wire 32 T src1_i [31:0] $end
$var wire 32 U src2_i [31:0] $end
$var reg 32 V sum_o [31:0] $end
$upscope $end
$scope module Branch_mux $end
$var wire 1 # data0_i $end
$var wire 1 W data1_i $end
$var wire 1 X data2_i $end
$var wire 1 Y data3_i $end
$var wire 2 Z select_i [1:0] $end
$var reg 1 2 data_o $end
$upscope $end
$scope module Data_Memory $end
$var wire 1 ! clk_i $end
$var wire 32 [ data_i [31:0] $end
$var wire 32 \ addr_i [31:0] $end
$var wire 1 ? MemWrite_i $end
$var wire 1 A MemRead_i $end
$var reg 32 ] data_o [31:0] $end
$var integer 32 ^ i [31:0] $end
$upscope $end
$scope module IM $end
$var wire 32 _ pc_addr_i [31:0] $end
$var reg 32 ` instr_o [31:0] $end
$var integer 32 a i [31:0] $end
$upscope $end
$scope module Jump_or_not $end
$var wire 32 b data1_i [31:0] $end
$var wire 1 C select_i $end
$var wire 32 c data0_i [31:0] $end
$var reg 32 d data_o [31:0] $end
$upscope $end
$scope module MUX_MemIn $end
$var wire 32 e data0_i [31:0] $end
$var wire 1 B select_i $end
$var wire 32 f data1_i [31:0] $end
$var reg 32 g data_o [31:0] $end
$upscope $end
$scope module Mux_ALUSrc $end
$var wire 1 F select_i $end
$var wire 32 h data1_i [31:0] $end
$var wire 32 i data0_i [31:0] $end
$var reg 32 j data_o [31:0] $end
$upscope $end
$scope module Mux_Extend $end
$var wire 1 - select_i $end
$var wire 32 k data1_i [31:0] $end
$var wire 32 l data0_i [31:0] $end
$var reg 32 m data_o [31:0] $end
$upscope $end
$scope module Mux_Write_Reg $end
$var wire 5 n data0_i [4:0] $end
$var wire 5 o data1_i [4:0] $end
$var wire 5 p data2_i [4:0] $end
$var wire 2 q select_i [1:0] $end
$var reg 5 r data_o [4:0] $end
$upscope $end
$scope module Mux_branch_type $end
$var wire 32 s data0_i [31:0] $end
$var wire 32 t data1_i [31:0] $end
$var wire 1 u select_i $end
$var reg 32 v data_o [31:0] $end
$upscope $end
$scope module Mux_jr $end
$var wire 32 w data0_i [31:0] $end
$var wire 1 * select_i $end
$var wire 32 x data1_i [31:0] $end
$var reg 32 y data_o [31:0] $end
$upscope $end
$scope module Mux_shamt_src $end
$var wire 32 z data0_i [31:0] $end
$var wire 1 % select_i $end
$var wire 32 { data1_i [31:0] $end
$var reg 32 | data_o [31:0] $end
$upscope $end
$scope module PC $end
$var wire 1 ! clk_i $end
$var wire 32 } pc_in_i [31:0] $end
$var wire 1 " rst_i $end
$var reg 32 ~ pc_out_o [31:0] $end
$upscope $end
$scope module RF $end
$var wire 5 !" RDaddr_i [4:0] $end
$var wire 5 "" RSaddr_i [4:0] $end
$var wire 32 #" RSdata_o [31:0] $end
$var wire 5 $" RTaddr_i [4:0] $end
$var wire 32 %" RTdata_o [31:0] $end
$var wire 1 &" RegWrite_i $end
$var wire 1 ! clk_i $end
$var wire 1 " rst_i $end
$var wire 32 '" RDdata_i [31:0] $end
$upscope $end
$scope module SE $end
$var wire 16 (" data_i [15:0] $end
$var reg 32 )" data_o [31:0] $end
$upscope $end
$scope module Shifter01 $end
$var wire 32 *" data_i [31:0] $end
$var wire 32 +" data_o [31:0] $end
$upscope $end
$scope module Shifter02 $end
$var wire 4 ," ALUCtrl_i [3:0] $end
$var wire 32 -" src1_i [31:0] $end
$var wire 32 ." src2_i [31:0] $end
$var reg 32 /" data_o [31:0] $end
$upscope $end
$scope module Write_data_mux $end
$var wire 32 0" data0_i [31:0] $end
$var wire 32 1" data1_i [31:0] $end
$var wire 32 2" data2_i [31:0] $end
$var wire 32 3" data3_i [31:0] $end
$var wire 2 4" select_i [1:0] $end
$var reg 32 5" data_o [31:0] $end
$upscope $end
$scope module Zf $end
$var wire 16 6" data_i [15:0] $end
$var wire 32 7" data_o [31:0] $end
$upscope $end
$scope module decode $end
$var wire 6 8" instr_op_i [5:0] $end
$var reg 1 F ALUSrc_o $end
$var reg 3 9" ALU_op_o [2:0] $end
$var reg 2 :" BranchType_o [1:0] $end
$var reg 1 4 Branch_o $end
$var reg 1 - Extend_mux $end
$var reg 1 C Jump_o $end
$var reg 1 A MemRead_o $end
$var reg 2 ;" MemToReg_o [1:0] $end
$var reg 1 ? MemWrite_o $end
$var reg 2 <" RegDst_o [1:0] $end
$var reg 1 9 RegWrite_o $end
$upscope $end
$upscope $end
$upscope $end
$enddefinitions $end
#0
$dumpvars
bx <"
bx ;"
bx :"
bx 9"
bx 8"
b0xxxxxxxxxxxxxxxx 7"
bx 6"
bx 5"
bx 4"
bx 3"
bx 2"
bx 1"
bx 0"
b0 /"
b0xxxxx ."
bx -"
bx ,"
bx00 +"
bx *"
bx )"
bx ("
bx '"
x&"
bx %"
bx $"
bx #"
bx ""
bx !"
bx ~
bx }
b0xxxxx |
bx {
b0xxxxx z
bx y
bx x
bx w
bx v
xu
bx t
bx s
bx r
bx q
b11111 p
bx o
bx n
bx m
bx l
b0xxxxxxxxxxxxxxxx k
bx j
bx i
bx h
bx g
b0 f
bx e
bx d
bx c
bx00 b
b100000 a
bx `
bx _
b10000000 ^
bx ]
bx \
bx [
bx Z
xY
xX
xW
bx V
bx00 U
bx T
bx S
bx R
b100 Q
bx P
bx O
bx N
bx M
bx L
bx K
bx J
b0 I
bx H
bx G
xF
bx E
bx D
xC
xB
xA
bx @
x?
bx >
bx =
bx <
bx ;
bx :
x9
bx 8
bx 7
bx 6
b0xxxxxxxxxxxxxxxx 5
x4
bx 3
x2
bx 1
bx 0
bx /
bx .
x-
bx00 ,
bx +
x*
bx )
bx (
bx '
b0xxxxx &
x%
b0 $
x#
0"
0!
$end
#5
b100 I
b0 6
b0 '"
b0 5"
b100 /
b100 y
b100 }
b0 '
b0 \
b0 g
b0 0"
b100 1
b100 d
b100 w
b0 E
b0 P
b0 e
b100 3
b100 V
b100 t
b10 H
b10 L
b10 M
b10 ,"
b100 0
b100 c
b100 v
b0 ,
b0 U
b0 +"
1&"
b1 ;
b1 r
b1 !"
b0 .
b0 h
b0 m
b0 *"
0*
0%
0B
b1 G
b1 K
b1 9"
b0 8
b0 N
b0 j
b0 -"
b0 &
b0 |
b0 ."
b100 )
b100 S
b100 T
b100 s
b100 3"
0u
b0 7
b0 l
b0 )"
b0 2"
b0 @
b0 4"
b0 ;"
0C
b0 D
b0 Z
b0 :"
0?
0A
0-
04
b0 :
b0 q
b0 <"
19
1F
b0 z
b0 o
b1 n
b1000000000000000000 b
b0 5
b0 k
b0 7"
b0 6"
b0 ("
b0 J
b1000 8"
b1 =
b1 [
b1 i
b1 %"
b1 $"
b0 >
b0 O
b0 x
b0 {
b0 #"
b0 ""
b100000000000010000000000000000 +
b100000000000010000000000000000 `
b0 (
b0 R
b0 _
b0 ~
1!
#10
b0 =
b0 [
b0 i
b0 %"
0!
1"
#15
b1000 I
b1000 /
b1000 y
b1000 }
b1000 1
b1000 d
b1000 w
b1000 3
b1000 V
b1000 t
b1000 0
b1000 c
b1000 v
b10 ;
b10 r
b10 !"
b1000 )
b1000 S
b1000 T
b1000 s
b1000 3"
b10 n
b10000000000000000000 b
b10 =
b10 [
b10 i
b10 %"
b10 $"
b100000000000100000000000000000 +
b100000000000100000000000000000 `
b100 (
b100 R
b100 _
b100 ~
1!
#20
0!
#25
b1100 I
b1100 /
b1100 y
b1100 }
b1100 1
b1100 d
b1100 w
b1100 3
b1100 V
b1100 t
b1100 0
b1100 c
b1100 v
b11 ;
b11 r
b11 !"
b1100 )
b1100 S
b1100 T
b1100 s
b1100 3"
b11 n
b11000000000000000000 b
b11 $"
b100000000000110000000000000000 +
b100000000000110000000000000000 `
b1000 (
b1000 R
b1000 _
b1000 ~
b11 =
b11 [
b11 i
b11 %"
1!
#30
0!
#35
b10000 I
b10000 /
b10000 y
b10000 }
b10000 1
b10000 d
b10000 w
b10000 3
b10000 V
b10000 t
b10000 0
b10000 c
b10000 v
b100 ;
b100 r
b100 !"
b10000 )
b10000 S
b10000 T
b10000 s
b10000 3"
b100 n
b100000000000000000000 b
b100 $"
b100000000001000000000000000000 +
b100000000001000000000000000000 `
b1100 (
b1100 R
b1100 _
b1100 ~
b100 =
b100 [
b100 i
b100 %"
1!
#40
0!
#45
b10100 I
b10100 /
b10100 y
b10100 }
b10100 1
b10100 d
b10100 w
b10100 3
b10100 V
b10100 t
b10100 0
b10100 c
b10100 v
b101 ;
b101 r
b101 !"
b10100 )
b10100 S
b10100 T
b10100 s
b10100 3"
b101 n
b101000000000000000000 b
b101 $"
b100000000001010000000000000000 +
b100000000001010000000000000000 `
b10000 (
b10000 R
b10000 _
b10000 ~
b101 =
b101 [
b101 i
b101 %"
1!
#50
0!
#55
b100100 I
b100100 /
b100100 y
b100100 }
b111100 3
b111100 V
b111100 t
b11000 0
b11000 c
b11000 v
b100100 ,
b100100 U
b100100 +"
b11000 6
b11000 '"
b11000 5"
b11111 ;
b11111 r
b11111 !"
b100100 1
b100100 d
b100100 w
b1001 .
b1001 h
b1001 m
b1001 *"
b0 G
b0 K
b0 9"
b11000 )
b11000 S
b11000 T
b11000 s
b11000 3"
b1001 7
b1001 l
b1001 )"
b1001 2"
b11 @
b11 4"
b11 ;"
1C
b10 D
b10 Z
b10 :"
b10 :
b10 q
b10 <"
0F
b0 n
b100100 b
b1001 5
b1001 k
b1001 7"
b1001 6"
b1001 ("
b1001 J
b11 8"
b0 $"
b1100000000000000000000001001 +
b1100000000000000000000001001 `
b10100 (
b10100 R
b10100 _
b10100 ~
b0 =
b0 [
b0 i
b0 %"
1!
#60
0!
#65
02
b101000 I
1X
0W
b100 '
b100 \
b100 g
b100 0"
1Y
0#
b101000 /
b101000 y
b101000 }
b111000 3
b111000 V
b111000 t
b101000 0
b101000 c
b101000 v
b100 E
b100 P
b100 e
b10000 ,
b10000 U
b10000 +"
b100 6
b100 '"
b100 5"
b100 8
b100 N
b100 j
b100 -"
b100 ;
b100 r
b100 !"
b101000 1
b101000 d
b101000 w
b100 .
b100 h
b100 m
b100 *"
b1 G
b1 K
b1 9"
b101000 )
b101000 S
b101000 T
b101000 s
b101000 3"
b100 7
b100 l
b100 )"
b100 2"
b0 @
b0 4"
b0 ;"
0C
b0 D
b0 Z
b0 :"
b0 :
b0 q
b0 <"
1F
b100 n
b100000000000000010000 b
b100 5
b100 k
b100 7"
b100 6"
b100 ("
b100 J
b1000 8"
b100 $"
b100000000001000000000000000100 +
b100000000001000000000000000100 `
b100100 (
b100100 R
b100100 _
b100100 ~
1!
#70
0!
#75
b101100 I
b101 6
b101 '"
b101 5"
b101100 /
b101100 y
b101100 }
b101 '
b101 \
b101 g
b101 0"
b101100 1
b101100 d
b101100 w
b101 E
b101 P
b101 e
b101 8
b101 N
b101 j
b101 -"
b1000000 3
b1000000 V
b1000000 t
b101100 0
b101100 c
b101100 v
b10100 ,
b10100 U
b10100 +"
b101 ;
b101 r
b101 !"
b101 .
b101 h
b101 m
b101 *"
b101100 )
b101100 S
b101100 T
b101100 s
b101100 3"
b101 7
b101 l
b101 )"
b101 2"
b101 n
b101000000000000010100 b
b101 5
b101 k
b101 7"
b101 6"
b101 ("
b101 J
b101 $"
b100000000001010000000000000101 +
b100000000001010000000000000101 `
b101000 (
b101000 R
b101000 _
b101000 ~
b0 =
b0 [
b0 i
b0 %"
1!
#80
0!
#85
b110000 I
12
b110000 /
b110000 y
b110000 }
0X
1W
b0 6
b0 '"
b0 5"
0Y
1#
b110000 1
b110000 d
b110000 w
b0 '
b0 \
b0 g
b0 0"
1B
b1011 H
b1011 L
b1011 M
b1011 ,"
b110000 3
b110000 V
b110000 t
b110000 0
b110000 c
b110000 v
b0 E
b0 P
b0 e
b0 ,
b0 U
b0 +"
b0 8
b0 N
b0 j
b0 -"
b0 ;
b0 r
b0 !"
b0 .
b0 h
b0 m
b0 *"
b0 G
b0 K
b0 9"
b110000 )
b110000 S
b110000 T
b110000 s
b110000 3"
b0 7
b0 l
b0 )"
b0 2"
b1 :
b1 q
b1 <"
0F
b0 n
b0 b
b0 5
b0 k
b0 7"
b0 6"
b0 ("
b0 J
b0 8"
b0 $"
b0 +
b0 `
b101100 (
b101100 R
b101100 _
b101100 ~
b0 =
b0 [
b0 i
b0 %"
1!
#90
0!
#95
b110100 I
b110100 /
b110100 y
b110100 }
b110100 1
b110100 d
b110100 w
b110100 3
b110100 V
b110100 t
b110100 0
b110100 c
b110100 v
b110100 )
b110100 S
b110100 T
b110100 s
b110100 3"
b110000 (
b110000 R
b110000 _
b110000 ~
1!
#100
0!
#105
b111000 I
b111000 /
b111000 y
b111000 }
b111000 1
b111000 d
b111000 w
b111000 3
b111000 V
b111000 t
b111000 0
b111000 c
b111000 v
b111000 )
b111000 S
b111000 T
b111000 s
b111000 3"
b110100 (
b110100 R
b110100 _
b110100 ~
1!
#110
0!
#115
b111100 I
b111100 /
b111100 y
b111100 }
b111100 1
b111100 d
b111100 w
b111100 3
b111100 V
b111100 t
b111100 0
b111100 c
b111100 v
b111100 )
b111100 S
b111100 T
b111100 s
b111100 3"
b111000 (
b111000 R
b111000 _
b111000 ~
1!
#120
0!
#125
b1000000 I
b1000000 /
b1000000 y
b1000000 }
b1000000 1
b1000000 d
b1000000 w
b1000000 3
b1000000 V
b1000000 t
b1000000 0
b1000000 c
b1000000 v
b1000000 )
b1000000 S
b1000000 T
b1000000 s
b1000000 3"
b111100 (
b111100 R
b111100 _
b111100 ~
1!
#130
0!
#135
b1000100 I
b1000100 /
b1000100 y
b1000100 }
b1000100 1
b1000100 d
b1000100 w
b1000100 3
b1000100 V
b1000100 t
b1000100 0
b1000100 c
b1000100 v
b1000100 )
b1000100 S
b1000100 T
b1000100 s
b1000100 3"
b1000000 (
b1000000 R
b1000000 _
b1000000 ~
1!
#140
0!
#145
b1001000 I
b1001000 /
b1001000 y
b1001000 }
b1001000 1
b1001000 d
b1001000 w
b1001000 3
b1001000 V
b1001000 t
b1001000 0
b1001000 c
b1001000 v
b1001000 )
b1001000 S
b1001000 T
b1001000 s
b1001000 3"
b1000100 (
b1000100 R
b1000100 _
b1000100 ~
1!
#150
0!
#155
b1001100 I
b1001100 /
b1001100 y
b1001100 }
b1001100 1
b1001100 d
b1001100 w
b1001100 3
b1001100 V
b1001100 t
b1001100 0
b1001100 c
b1001100 v
b1001100 )
b1001100 S
b1001100 T
b1001100 s
b1001100 3"
b1001000 (
b1001000 R
b1001000 _
b1001000 ~
1!
#160
0!
#165
b1010000 I
b1010000 /
b1010000 y
b1010000 }
b1010000 1
b1010000 d
b1010000 w
b1010000 3
b1010000 V
b1010000 t
b1010000 0
b1010000 c
b1010000 v
b1010000 )
b1010000 S
b1010000 T
b1010000 s
b1010000 3"
b1001100 (
b1001100 R
b1001100 _
b1001100 ~
1!
#170
0!
#175
b1010100 I
b1010100 /
b1010100 y
b1010100 }
b1010100 1
b1010100 d
b1010100 w
b1010100 3
b1010100 V
b1010100 t
b1010100 0
b1010100 c
b1010100 v
b1010100 )
b1010100 S
b1010100 T
b1010100 s
b1010100 3"
b1010000 (
b1010000 R
b1010000 _
b1010000 ~
1!
#180
0!
#185
b1011000 I
b1011000 /
b1011000 y
b1011000 }
b1011000 1
b1011000 d
b1011000 w
b1011000 3
b1011000 V
b1011000 t
b1011000 0
b1011000 c
b1011000 v
b1011000 )
b1011000 S
b1011000 T
b1011000 s
b1011000 3"
b1010100 (
b1010100 R
b1010100 _
b1010100 ~
1!
#190
0!
#195
b1011100 I
b1011100 /
b1011100 y
b1011100 }
b1011100 1
b1011100 d
b1011100 w
b1011100 3
b1011100 V
b1011100 t
b1011100 0
b1011100 c
b1011100 v
b1011100 )
b1011100 S
b1011100 T
b1011100 s
b1011100 3"
b1011000 (
b1011000 R
b1011000 _
b1011000 ~
1!
#200
0!
#205
b1100000 I
b1100000 /
b1100000 y
b1100000 }
b1100000 1
b1100000 d
b1100000 w
b1100000 3
b1100000 V
b1100000 t
b1100000 0
b1100000 c
b1100000 v
b1100000 )
b1100000 S
b1100000 T
b1100000 s
b1100000 3"
b1011100 (
b1011100 R
b1011100 _
b1011100 ~
1!
#210
0!
#215
b1100100 I
b1100100 /
b1100100 y
b1100100 }
b1100100 1
b1100100 d
b1100100 w
b1100100 3
b1100100 V
b1100100 t
b1100100 0
b1100100 c
b1100100 v
b1100100 )
b1100100 S
b1100100 T
b1100100 s
b1100100 3"
b1100000 (
b1100000 R
b1100000 _
b1100000 ~
1!
#220
0!
#225
b1101000 I
b1101000 /
b1101000 y
b1101000 }
b1101000 1
b1101000 d
b1101000 w
b1101000 3
b1101000 V
b1101000 t
b1101000 0
b1101000 c
b1101000 v
b1101000 )
b1101000 S
b1101000 T
b1101000 s
b1101000 3"
b1100100 (
b1100100 R
b1100100 _
b1100100 ~
1!
#230
0!
#235
b1101100 I
b1101100 /
b1101100 y
b1101100 }
b1101100 1
b1101100 d
b1101100 w
b1101100 3
b1101100 V
b1101100 t
b1101100 0
b1101100 c
b1101100 v
b1101100 )
b1101100 S
b1101100 T
b1101100 s
b1101100 3"
b1101000 (
b1101000 R
b1101000 _
b1101000 ~
1!
#240
0!
#245
b1110000 I
b1110000 /
b1110000 y
b1110000 }
b1110000 1
b1110000 d
b1110000 w
b1110000 3
b1110000 V
b1110000 t
b1110000 0
b1110000 c
b1110000 v
b1110000 )
b1110000 S
b1110000 T
b1110000 s
b1110000 3"
b1101100 (
b1101100 R
b1101100 _
b1101100 ~
1!
#250
0!
#255
b1110100 I
b1110100 /
b1110100 y
b1110100 }
b1110100 1
b1110100 d
b1110100 w
b1110100 3
b1110100 V
b1110100 t
b1110100 0
b1110100 c
b1110100 v
b1110100 )
b1110100 S
b1110100 T
b1110100 s
b1110100 3"
b1110000 (
b1110000 R
b1110000 _
b1110000 ~
1!
#260
0!
#265
b1111000 I
b1111000 /
b1111000 y
b1111000 }
b1111000 1
b1111000 d
b1111000 w
b1111000 3
b1111000 V
b1111000 t
b1111000 0
b1111000 c
b1111000 v
b1111000 )
b1111000 S
b1111000 T
b1111000 s
b1111000 3"
b1110100 (
b1110100 R
b1110100 _
b1110100 ~
1!
#270
0!
#275
b1111100 I
b1111100 /
b1111100 y
b1111100 }
b1111100 1
b1111100 d
b1111100 w
b1111100 3
b1111100 V
b1111100 t
b1111100 0
b1111100 c
b1111100 v
b1111100 )
b1111100 S
b1111100 T
b1111100 s
b1111100 3"
b1111000 (
b1111000 R
b1111000 _
b1111000 ~
1!
#280
0!
#285
b10000000 I
b10000000 /
b10000000 y
b10000000 }
b10000000 1
b10000000 d
b10000000 w
b10000000 3
b10000000 V
b10000000 t
b10000000 0
b10000000 c
b10000000 v
b10000000 )
b10000000 S
b10000000 T
b10000000 s
b10000000 3"
b1111100 (
b1111100 R
b1111100 _
b1111100 ~
1!
#290
0!
#295
b10000100 I
b10000100 /
b10000100 y
b10000100 }
b10000100 1
b10000100 d
b10000100 w
bx 3
bx V
bx t
b10000100 0
b10000100 c
b10000100 v
bx00 ,
bx00 U
bx00 +"
bx $
bx f
bx /"
bx ;
bx r
bx !"
bx .
bx h
bx m
bx *"
0B
bx 8
bx N
bx j
bx -"
b0xxxxx &
b0xxxxx |
b0xxxxx ."
b10000100 )
b10000100 S
b10000100 T
b10000100 s
b10000100 3"
bx 7
bx l
bx )"
bx 2"
b0xxxxx z
bx o
bx n
b0xxxxxxxxxxxxxxxxxxxxxxxxxx00 b
b0xxxxxxxxxxxxxxxx 5
b0xxxxxxxxxxxxxxxx k
b0xxxxxxxxxxxxxxxx 7"
bx 6"
bx ("
bx J
bx 8"
bx =
bx [
bx i
bx %"
bx $"
bx >
bx O
bx x
bx {
bx #"
bx ""
bx +
bx `
b10000000 (
b10000000 R
b10000000 _
b10000000 ~
1!
#300
0!
#305
b10001000 I
b10001000 /
b10001000 y
b10001000 }
b10001000 1
b10001000 d
b10001000 w
b10001000 0
b10001000 c
b10001000 v
b10001000 )
b10001000 S
b10001000 T
b10001000 s
b10001000 3"
b10000100 (
b10000100 R
b10000100 _
b10000100 ~
1!
#310
0!
#315
b10001100 I
b10001100 /
b10001100 y
b10001100 }
b10001100 1
b10001100 d
b10001100 w
b10001100 0
b10001100 c
b10001100 v
b10001100 )
b10001100 S
b10001100 T
b10001100 s
b10001100 3"
b10001000 (
b10001000 R
b10001000 _
b10001000 ~
1!
#320
0!
#325
b10010000 I
b10010000 /
b10010000 y
b10010000 }
b10010000 1
b10010000 d
b10010000 w
b10010000 0
b10010000 c
b10010000 v
b10010000 )
b10010000 S
b10010000 T
b10010000 s
b10010000 3"
b10001100 (
b10001100 R
b10001100 _
b10001100 ~
1!
#330
0!
#335
b10010100 I
b10010100 /
b10010100 y
b10010100 }
b10010100 1
b10010100 d
b10010100 w
b10010100 0
b10010100 c
b10010100 v
b10010100 )
b10010100 S
b10010100 T
b10010100 s
b10010100 3"
b10010000 (
b10010000 R
b10010000 _
b10010000 ~
1!
#340
0!
#345
b10011000 I
b10011000 /
b10011000 y
b10011000 }
b10011000 1
b10011000 d
b10011000 w
b10011000 0
b10011000 c
b10011000 v
b10011000 )
b10011000 S
b10011000 T
b10011000 s
b10011000 3"
b10010100 (
b10010100 R
b10010100 _
b10010100 ~
1!
#350
0!
#355
b10011100 I
b10011100 /
b10011100 y
b10011100 }
b10011100 1
b10011100 d
b10011100 w
b10011100 0
b10011100 c
b10011100 v
b10011100 )
b10011100 S
b10011100 T
b10011100 s
b10011100 3"
b10011000 (
b10011000 R
b10011000 _
b10011000 ~
1!
#360
0!
#365
b10100000 I
b10100000 /
b10100000 y
b10100000 }
b10100000 1
b10100000 d
b10100000 w
b10100000 0
b10100000 c
b10100000 v
b10100000 )
b10100000 S
b10100000 T
b10100000 s
b10100000 3"
b10011100 (
b10011100 R
b10011100 _
b10011100 ~
1!
#370
0!
#375
b10100100 I
b10100100 /
b10100100 y
b10100100 }
b10100100 1
b10100100 d
b10100100 w
b10100100 0
b10100100 c
b10100100 v
b10100100 )
b10100100 S
b10100100 T
b10100100 s
b10100100 3"
b10100000 (
b10100000 R
b10100000 _
b10100000 ~
1!
#380
0!
#385
b10101000 I
b10101000 /
b10101000 y
b10101000 }
b10101000 1
b10101000 d
b10101000 w
b10101000 0
b10101000 c
b10101000 v
b10101000 )
b10101000 S
b10101000 T
b10101000 s
b10101000 3"
b10100100 (
b10100100 R
b10100100 _
b10100100 ~
1!
#390
0!
#395
b10101100 I
b10101100 /
b10101100 y
b10101100 }
b10101100 1
b10101100 d
b10101100 w
b10101100 0
b10101100 c
b10101100 v
b10101100 )
b10101100 S
b10101100 T
b10101100 s
b10101100 3"
b10101000 (
b10101000 R
b10101000 _
b10101000 ~
1!
#400
0!
#405
b10110000 I
b10110000 /
b10110000 y
b10110000 }
b10110000 1
b10110000 d
b10110000 w
b10110000 0
b10110000 c
b10110000 v
b10110000 )
b10110000 S
b10110000 T
b10110000 s
b10110000 3"
b10101100 (
b10101100 R
b10101100 _
b10101100 ~
1!
#410
0!
#415
b10110100 I
b10110100 /
b10110100 y
b10110100 }
b10110100 1
b10110100 d
b10110100 w
b10110100 0
b10110100 c
b10110100 v
b10110100 )
b10110100 S
b10110100 T
b10110100 s
b10110100 3"
b10110000 (
b10110000 R
b10110000 _
b10110000 ~
1!
#420
0!
#425
b10111000 I
b10111000 /
b10111000 y
b10111000 }
b10111000 1
b10111000 d
b10111000 w
b10111000 0
b10111000 c
b10111000 v
b10111000 )
b10111000 S
b10111000 T
b10111000 s
b10111000 3"
b10110100 (
b10110100 R
b10110100 _
b10110100 ~
1!
#430
0!
#435
b10111100 I
b10111100 /
b10111100 y
b10111100 }
b10111100 1
b10111100 d
b10111100 w
b10111100 0
b10111100 c
b10111100 v
b10111100 )
b10111100 S
b10111100 T
b10111100 s
b10111100 3"
b10111000 (
b10111000 R
b10111000 _
b10111000 ~
1!
#440
0!
#445
b11000000 I
b11000000 /
b11000000 y
b11000000 }
b11000000 1
b11000000 d
b11000000 w
b11000000 0
b11000000 c
b11000000 v
b11000000 )
b11000000 S
b11000000 T
b11000000 s
b11000000 3"
b10111100 (
b10111100 R
b10111100 _
b10111100 ~
1!
#450
0!
#455
b11000100 I
b11000100 /
b11000100 y
b11000100 }
b11000100 1
b11000100 d
b11000100 w
b11000100 0
b11000100 c
b11000100 v
b11000100 )
b11000100 S
b11000100 T
b11000100 s
b11000100 3"
b11000000 (
b11000000 R
b11000000 _
b11000000 ~
1!
#460
0!
#465
b11001000 I
b11001000 /
b11001000 y
b11001000 }
b11001000 1
b11001000 d
b11001000 w
b11001000 0
b11001000 c
b11001000 v
b11001000 )
b11001000 S
b11001000 T
b11001000 s
b11001000 3"
b11000100 (
b11000100 R
b11000100 _
b11000100 ~
1!
#470
0!
#475
b11001100 I
b11001100 /
b11001100 y
b11001100 }
b11001100 1
b11001100 d
b11001100 w
b11001100 0
b11001100 c
b11001100 v
b11001100 )
b11001100 S
b11001100 T
b11001100 s
b11001100 3"
b11001000 (
b11001000 R
b11001000 _
b11001000 ~
1!
#480
0!
#485
b11010000 I
b11010000 /
b11010000 y
b11010000 }
b11010000 1
b11010000 d
b11010000 w
b11010000 0
b11010000 c
b11010000 v
b11010000 )
b11010000 S
b11010000 T
b11010000 s
b11010000 3"
b11001100 (
b11001100 R
b11001100 _
b11001100 ~
1!
#490
0!
#495
b11010100 I
b11010100 /
b11010100 y
b11010100 }
b11010100 1
b11010100 d
b11010100 w
b11010100 0
b11010100 c
b11010100 v
b11010100 )
b11010100 S
b11010100 T
b11010100 s
b11010100 3"
b11010000 (
b11010000 R
b11010000 _
b11010000 ~
1!
#500
0!
#505
b11011000 I
b11011000 /
b11011000 y
b11011000 }
b11011000 1
b11011000 d
b11011000 w
b11011000 0
b11011000 c
b11011000 v
b11011000 )
b11011000 S
b11011000 T
b11011000 s
b11011000 3"
b11010100 (
b11010100 R
b11010100 _
b11010100 ~
1!
#510
0!
#515
b11011100 I
b11011100 /
b11011100 y
b11011100 }
b11011100 1
b11011100 d
b11011100 w
b11011100 0
b11011100 c
b11011100 v
b11011100 )
b11011100 S
b11011100 T
b11011100 s
b11011100 3"
b11011000 (
b11011000 R
b11011000 _
b11011000 ~
1!
#520
0!
#525
b11100000 I
b11100000 /
b11100000 y
b11100000 }
b11100000 1
b11100000 d
b11100000 w
b11100000 0
b11100000 c
b11100000 v
b11100000 )
b11100000 S
b11100000 T
b11100000 s
b11100000 3"
b11011100 (
b11011100 R
b11011100 _
b11011100 ~
1!
#530
0!
#535
b11100100 I
b11100100 /
b11100100 y
b11100100 }
b11100100 1
b11100100 d
b11100100 w
b11100100 0
b11100100 c
b11100100 v
b11100100 )
b11100100 S
b11100100 T
b11100100 s
b11100100 3"
b11100000 (
b11100000 R
b11100000 _
b11100000 ~
1!
#540
0!
#545
b11101000 I
b11101000 /
b11101000 y
b11101000 }
b11101000 1
b11101000 d
b11101000 w
b11101000 0
b11101000 c
b11101000 v
b11101000 )
b11101000 S
b11101000 T
b11101000 s
b11101000 3"
b11100100 (
b11100100 R
b11100100 _
b11100100 ~
1!
#550
0!
#555
b11101100 I
b11101100 /
b11101100 y
b11101100 }
b11101100 1
b11101100 d
b11101100 w
b11101100 0
b11101100 c
b11101100 v
b11101100 )
b11101100 S
b11101100 T
b11101100 s
b11101100 3"
b11101000 (
b11101000 R
b11101000 _
b11101000 ~
1!
#560
0!
