Lab3/lab3_cpu.vcd
$date
	Sun May 24 22:56:54 2020
$end
$version
	Icarus Verilog
$end
$timescale
	1s
$end
$scope module TestBench $end
$scope module cpu $end
$var wire 1 ! clk_i $end
$var wire 1 " rst_i $end
$var wire 1 # zero $end
$var wire 32 $ shifter_out [31:0] $end
$var wire 1 % shamt_ctrl $end
$var wire 32 & shamt [31:0] $end
$var wire 32 ' result [31:0] $end
$var wire 32 ( now_address [31:0] $end
$var wire 32 ) next_address [31:0] $end
$var wire 1 * jr_ctrl $end
$var wire 32 + instruction [31:0] $end
$var wire 32 , extend_shift_two [31:0] $end
$var wire 1 - extend_choose $end
$var wire 32 . extend [31:0] $end
$var wire 32 / current_program [31:0] $end
$var wire 32 0 branch_select_pc_or_not [31:0] $end
$var wire 32 1 branch_or_jump [31:0] $end
$var wire 1 2 branch_judge $end
$var wire 32 3 branch_address [31:0] $end
$var wire 1 4 branch $end
$var wire 32 5 ZeroExtend [31:0] $end
$var wire 32 6 WriteData [31:0] $end
$var wire 32 7 SignExtend [31:0] $end
$var wire 32 8 RtALU [31:0] $end
$var wire 1 9 RegWrite $end
$var wire 2 : RegDst [1:0] $end
$var wire 5 ; RegDout [4:0] $end
$var wire 32 < Readdata [31:0] $end
$var wire 32 = RT [31:0] $end
$var wire 32 > RS [31:0] $end
$var wire 1 ? MemWrite $end
$var wire 2 @ MemToReg [1:0] $end
$var wire 1 A MemRead $end
$var wire 1 B MemIn_ctrl $end
$var wire 1 C Jump $end
$var wire 2 D BranchType [1:0] $end
$var wire 32 E ALUoutput [31:0] $end
$var wire 1 F ALUSrc $end
$var wire 3 G ALUOp [2:0] $end
$var wire 4 H ALUCtrl [3:0] $end
$var reg 32 I Reg_current_program [31:0] $end
$scope module AC $end
$var wire 6 J funct_i [5:0] $end
$var wire 3 K ALUOp_i [2:0] $end
$var reg 4 L ALUCtrl_o [3:0] $end
$var reg 1 B MemIn_ctrl_o $end
$var reg 1 * jr_ctrl_o $end
$var reg 1 % shamt_ctrl_o $end
$upscope $end
$scope module ALU_unit $end
$var wire 4 M ctrl_i [3:0] $end
$var wire 32 N src2_i [31:0] $end
$var wire 32 O src1_i [31:0] $end
$var reg 32 P result_o [31:0] $end
$var reg 1 # zero_o $end
$upscope $end
$scope module Adder1 $end
$var wire 32 Q src2_i [31:0] $end
$var wire 32 R src1_i [31:0] $end
$var reg 32 S sum_o [31:0] $end
$upscope $end
$scope module Adder2 $end
$var wire 32 T src1_i [31:0] $end
$var wire 32 U src2_i [31:0] $end
$var reg 32 V sum_o [31:0] $end
$upscope $end
$scope module Branch_mux $end
$var wire 1 # data0_i $end
$var wire 1 W data1_i $end
$var wire 1 X data2_i $end
$var wire 1 Y data3_i $end
$var wire 2 Z select_i [1:0] $end
$var reg 1 2 data_o $end
$upscope $end
$scope module Data_Memory $end
$var wire 1 ! clk_i $end
$var wire 32 [ data_i [31:0] $end
$var wire 32 \ addr_i [31:0] $end
$var wire 1 ? MemWrite_i $end
$var wire 1 A MemRead_i $end
$var reg 32 ] data_o [31:0] $end
$var integer 32 ^ i [31:0] $end
$upscope $end
$scope module IM $end
$var wire 32 _ pc_addr_i [31:0] $end
$var reg 32 ` instr_o [31:0] $end
$var integer 32 a i [31:0] $end
$upscope $end
$scope module Jump_or_not $end
$var wire 32 b data1_i [31:0] $end
$var wire 1 C select_i $end
$var wire 32 c data0_i [31:0] $end
$var reg 32 d data_o [31:0] $end
$upscope $end
$scope module MUX_MemIn $end
$var wire 32 e data0_i [31:0] $end
$var wire 1 B select_i $end
$var wire 32 f data1_i [31:0] $end
$var reg 32 g data_o [31:0] $end
$upscope $end
$scope module Mux_ALUSrc $end
$var wire 1 F select_i $end
$var wire 32 h data1_i [31:0] $end
$var wire 32 i data0_i [31:0] $end
$var reg 32 j data_o [31:0] $end
$upscope $end
$scope module Mux_Extend $end
$var wire 1 - select_i $end
$var wire 32 k data1_i [31:0] $end
$var wire 32 l data0_i [31:0] $end
$var reg 32 m data_o [31:0] $end
$upscope $end
$scope module Mux_Write_Reg $end
$var wire 5 n data0_i [4:0] $end
$var wire 5 o data1_i [4:0] $end
$var wire 5 p data2_i [4:0] $end
$var wire 2 q select_i [1:0] $end
$var reg 5 r data_o [4:0] $end
$upscope $end
$scope module Mux_branch_type $end
$var wire 32 s data0_i [31:0] $end
$var wire 32 t data1_i [31:0] $end
$var wire 1 u select_i $end
$var reg 32 v data_o [31:0] $end
$upscope $end
$scope module Mux_jr $end
$var wire 32 w data0_i [31:0] $end
$var wire 1 * select_i $end
$var wire 32 x data1_i [31:0] $end
$var reg 32 y data_o [31:0] $end
$upscope $end
$scope module Mux_shamt_src $end
$var wire 32 z data0_i [31:0] $end
$var wire 1 % select_i $end
$var wire 32 { data1_i [31:0] $end
$var reg 32 | data_o [31:0] $end
$upscope $end
$scope module PC $end
$var wire 1 ! clk_i $end
$var wire 32 } pc_in_i [31:0] $end
$var wire 1 " rst_i $end
$var reg 32 ~ pc_out_o [31:0] $end
$upscope $end
$scope module RF $end
$var wire 5 !" RDaddr_i [4:0] $end
$var wire 5 "" RSaddr_i [4:0] $end
$var wire 32 #" RSdata_o [31:0] $end
$var wire 5 $" RTaddr_i [4:0] $end
$var wire 32 %" RTdata_o [31:0] $end
$var wire 1 &" RegWrite_i $end
$var wire 1 ! clk_i $end
$var wire 1 " rst_i $end
$var wire 32 '" RDdata_i [31:0] $end
$upscope $end
$scope module SE $end
$var wire 16 (" data_i [15:0] $end
$var reg 32 )" data_o [31:0] $end
$upscope $end
$scope module Shifter01 $end
$var wire 32 *" data_i [31:0] $end
$var wire 32 +" data_o [31:0] $end
$upscope $end
$scope module Shifter02 $end
$var wire 4 ," ALUCtrl_i [3:0] $end
$var wire 32 -" src1_i [31:0] $end
$var wire 32 ." src2_i [31:0] $end
$var reg 32 /" data_o [31:0] $end
$upscope $end
$scope module Write_data_mux $end
$var wire 32 0" data0_i [31:0] $end
$var wire 32 1" data1_i [31:0] $end
$var wire 32 2" data2_i [31:0] $end
$var wire 32 3" data3_i [31:0] $end
$var wire 2 4" select_i [1:0] $end
$var reg 32 5" data_o [31:0] $end
$upscope $end
$scope module Zf $end
$var wire 16 6" data_i [15:0] $end
$var wire 32 7" data_o [31:0] $end
$upscope $end
$scope module decode $end
$var wire 6 8" instr_op_i [5:0] $end
$var reg 1 F ALUSrc_o $end
$var reg 3 9" ALU_op_o [2:0] $end
$var reg 2 :" BranchType_o [1:0] $end
$var reg 1 4 Branch_o $end
$var reg 1 - Extend_mux $end
$var reg 1 C Jump_o $end
$var reg 1 A MemRead_o $end
$var reg 2 ;" MemToReg_o [1:0] $end
$var reg 1 ? MemWrite_o $end
$var reg 2 <" RegDst_o [1:0] $end
$var reg 1 9 RegWrite_o $end
$upscope $end
$upscope $end
$upscope $end
$enddefinitions $end
#0
$dumpvars
bx <"
bx ;"
bx :"
bx 9"
bx 8"
b0xxxxxxxxxxxxxxxx 7"
bx 6"
bx 5"
bx 4"
bx 3"
bx 2"
bx 1"
bx 0"
b0 /"
b0xxxxx ."
bx -"
bx ,"
bx00 +"
bx *"
bx )"
bx ("
bx '"
x&"
bx %"
bx $"
bx #"
bx ""
bx !"
bx ~
bx }
b0xxxxx |
bx {
b0xxxxx z
bx y
bx x
bx w
bx v
xu
bx t
bx s
bx r
bx q
b11111 p
bx o
bx n
bx m
bx l
b0xxxxxxxxxxxxxxxx k
bx j
bx i
bx h
bx g
b0 f
bx e
bx d
bx c
bx00 b
b100000 a
bx `
bx _
b10000000 ^
bx ]
bx \
bx [
bx Z
xY
xX
xW
bx V
bx00 U
bx T
bx S
bx R
b100 Q
bx P
bx O
bx N
bx M
bx L
bx K
bx J
b0 I
bx H
bx G
xF
bx E
bx D
xC
xB
xA
bx @
x?
bx >
bx =
bx <
bx ;
bx :
x9
bx 8
bx 7
bx 6
b0xxxxxxxxxxxxxxxx 5
x4
bx 3
x2
bx 1
bx 0
bx /
bx .
x-
bx00 ,
bx +
x*
bx )
bx (
bx '
b0xxxxx &
x%
b0 $
x#
0"
0!
$end
#5
b100 I
b0 6
b0 '"
b0 5"
b100 /
b100 y
b100 }
b0 '
b0 \
b0 g
b0 0"
b100 1
b100 d
b100 w
b0 E
b0 P
b0 e
b10000000010001000 3
b10000000010001000 V
b10000000010001000 t
b10 H
b10 L
b10 M
b10 ,"
b100 0
b100 c
b100 v
b10000000010000100 ,
b10000000010000100 U
b10000000010000100 +"
1&"
b1000 ;
b1000 r
b1000 !"
b100000000100001 .
b100000000100001 h
b100000000100001 m
b100000000100001 *"
0*
0%
0B
b0 G
b0 K
b0 9"
b0 8
b0 N
b0 j
b0 -"
b0 &
b0 |
b0 ."
b100 )
b100 S
b100 T
b100 s
b100 3"
0u
b100000000100001 7
b100000000100001 l
b100000000100001 )"
b100000000100001 2"
b0 @
b0 4"
b0 ;"
0C
b0 D
b0 Z
b0 :"
0?
0A
0-
04
b1 :
b1 q
b1 <"
19
0F
b0 z
b1000 o
b0 n
b10000000010000100 b
b100000000100001 5
b100000000100001 k
b100000000100001 7"
b100000000100001 6"
b100000000100001 ("
b100001 J
b0 8"
b0 =
b0 [
b0 i
b0 %"
b0 $"
b0 >
b0 O
b0 x
b0 {
b0 #"
b0 ""
b100000000100001 +
b100000000100001 `
b0 (
b0 R
b0 _
b0 ~
1!
#10
0!
1"
#15
b1000 I
b1000 /
b1000 y
b1000 }
b1010 6
b1010 '"
b1010 5"
b1000 1
b1000 d
b1000 w
b1010 '
b1010 \
b1010 g
b1010 0"
b110000 3
b110000 V
b110000 t
b1000 0
b1000 c
b1000 v
b101000 ,
b101000 U
b101000 +"
b1010 E
b1010 P
b1010 e
b1001 ;
b1001 r
b1001 !"
b1010 .
b1010 h
b1010 m
b1010 *"
b1 G
b1 K
b1 9"
b1010 8
b1010 N
b1010 j
b1010 -"
b1000 )
b1000 S
b1000 T
b1000 s
b1000 3"
b1010 7
b1010 l
b1010 )"
b1010 2"
b0 :
b0 q
b0 <"
1F
b0 o
b1001 n
b1001000000000000101000 b
b1010 5
b1010 k
b1010 7"
b1010 6"
b1010 ("
b1010 J
b1000 8"
b1001 =
b1001 [
b1001 i
b1001 %"
b1001 $"
b100000000010010000000000001010 +
b100000000010010000000000001010 `
b100 (
b100 R
b100 _
b100 ~
1!
#20
0!
#25
b1100 I
b1101 6
b1101 '"
b1101 5"
b1100 /
b1100 y
b1100 }
b1101 '
b1101 \
b1101 g
b1101 0"
b1100 1
b1100 d
b1100 w
b1101 E
b1101 P
b1101 e
b1101 8
b1101 N
b1101 j
b1101 -"
b1000000 3
b1000000 V
b1000000 t
b1100 0
b1100 c
b1100 v
b110100 ,
b110100 U
b110100 +"
b1010 ;
b1010 r
b1010 !"
b1101 .
b1101 h
b1101 m
b1101 *"
b1100 )
b1100 S
b1100 T
b1100 s
b1100 3"
b1101 7
b1101 l
b1101 )"
b1101 2"
b1010 n
b1010000000000000110100 b
b1101 5
b1101 k
b1101 7"
b1101 6"
b1101 ("
b1101 J
b1010 $"
b100000000010100000000000001101 +
b100000000010100000000000001101 `
b1000 (
b1000 R
b1000 _
b1000 ~
b11111111111111111111111111111111 =
b11111111111111111111111111111111 [
b11111111111111111111111111111111 i
b11111111111111111111111111111111 %"
1!
#30
0!
#35
b10000 I
b10000 /
b10000 y
b10000 }
b10000 1
b10000 d
b10000 w
b11 H
b11 L
b11 M
b11 ,"
b10110000001110000 3
b10110000001110000 V
b10110000001110000 t
b10000 0
b10000 c
b10000 v
b1100100 6
b1100100 '"
b1100100 5"
b10110000001100000 ,
b10110000001100000 U
b10110000001100000 +"
b1010 8
b1010 N
b1010 j
b1010 -"
b1100100 '
b1100100 \
b1100100 g
b1100100 0"
b1011 ;
b1011 r
b1011 !"
b101100000011000 .
b101100000011000 h
b101100000011000 m
b101100000011000 *"
b0 G
b0 K
b0 9"
b10000 )
b10000 S
b10000 T
b10000 s
b10000 3"
b101100000011000 7
b101100000011000 l
b101100000011000 )"
b101100000011000 2"
b1 :
b1 q
b1 <"
0F
b1100100 E
b1100100 P
b1100100 e
b1011 o
b1001 n
b100101001010110000001100000 b
b101100000011000 5
b101100000011000 k
b101100000011000 7"
b101100000011000 6"
b101100000011000 ("
b11000 J
b0 8"
b1001 $"
b1010 >
b1010 O
b1010 x
b1010 {
b1010 #"
b1001 ""
b1001010010101100000011000 +
b1001010010101100000011000 `
b1100 (
b1100 R
b1100 _
b1100 ~
b1010 =
b1010 [
b1010 i
b1010 %"
1!
#40
0!
#45
b1100100 I
b1100100 /
b1100100 y
b1100100 }
b1111000 3
b1111000 V
b1111000 t
b10100 0
b10100 c
b10100 v
b0 6
b0 '"
b0 5"
b1100100 ,
b1100100 U
b1100100 +"
b0 '
b0 \
b0 g
b0 0"
b0 ;
b0 r
b0 !"
b1100100 1
b1100100 d
b1100100 w
b11001 .
b11001 h
b11001 m
b11001 *"
b0 8
b0 N
b0 j
b0 -"
b10100 )
b10100 S
b10100 T
b10100 s
b10100 3"
0&"
b11001 7
b11001 l
b11001 )"
b11001 2"
1C
b10 D
b10 Z
b10 :"
b0 :
b0 q
b0 <"
09
b0 E
b0 P
b0 e
b0 o
b0 n
b1100100 b
b11001 5
b11001 k
b11001 7"
b11001 6"
b11001 ("
b11001 J
b10 8"
b0 =
b0 [
b0 i
b0 %"
b0 $"
b0 >
b0 O
b0 x
b0 {
b0 #"
b0 ""
b1000000000000000000000011001 +
b1000000000000000000000011001 `
b10000 (
b10000 R
b10000 _
b10000 ~
1!
#50
0!
#55
b11 6
b11 '"
b11 5"
b1101000 I
02
b11 '
b11 \
b11 g
b11 0"
b1101000 /
b1101000 y
b1101000 }
b10100000011110100 3
b10100000011110100 V
b10100000011110100 t
b1101000 0
b1101000 c
b1101000 v
1X
0W
b10100000010001100 ,
b10100000010001100 U
b10100000010001100 +"
1Y
0#
b11 E
b11 P
b11 e
b1010 ;
b1010 r
b1010 !"
b1101000 1
b1101000 d
b1101000 w
b101000000100011 .
b101000000100011 h
b101000000100011 m
b101000000100011 *"
b110 H
b110 L
b110 M
b110 ,"
b1010 8
b1010 N
b1010 j
b1010 -"
b1101000 )
b1101000 S
b1101000 T
b1101000 s
b1101000 3"
1&"
b101000000100011 7
b101000000100011 l
b101000000100011 )"
b101000000100011 2"
0C
b0 D
b0 Z
b0 :"
b1 :
b1 q
b1 <"
19
b1010 o
b1001 n
b101001001010100000010001100 b
b101000000100011 5
b101000000100011 k
b101000000100011 7"
b101000000100011 6"
b101000000100011 ("
b100011 J
b0 8"
b1010 =
b1010 [
b1010 i
b1010 %"
b1001 $"
b1101 >
b1101 O
b1101 x
b1101 {
b1101 #"
b1010 ""
b1010010010101000000100011 +
b1010010010101000000100011 `
b1100100 (
b1100100 R
b1100100 _
b1100100 ~
1!
#60
0!
#65
b1101100 I
b1101100 /
b1101100 y
b1101100 }
b1101100 1
b1101100 d
b1101100 w
b11000000011110000 3
b11000000011110000 V
b11000000011110000 t
b1101100 0
b1101100 c
b1101100 v
b1100111 6
b1100111 '"
b1100111 5"
b11000000010000100 ,
b11000000010000100 U
b11000000010000100 +"
b1100 ;
b1100 r
b1100 !"
b110000000100001 .
b110000000100001 h
b110000000100001 m
b110000000100001 *"
b10 H
b10 L
b10 M
b10 ,"
b11 8
b11 N
b11 j
b11 -"
b1100111 '
b1100111 \
b1100111 g
b1100111 0"
b1101100 )
b1101100 S
b1101100 T
b1101100 s
b1101100 3"
b110000000100001 7
b110000000100001 l
b110000000100001 )"
b110000000100001 2"
b1100 o
b1010 n
b101101010011000000010000100 b
b110000000100001 5
b110000000100001 k
b110000000100001 7"
b110000000100001 6"
b110000000100001 ("
b100001 J
b11 =
b11 [
b11 i
b11 %"
b1010 $"
b1011 ""
b1011010100110000000100001 +
b1011010100110000000100001 `
b1100111 E
b1100111 P
b1100111 e
b1101000 (
b1101000 R
b1101000 _
b1101000 ~
b1100100 >
b1100100 O
b1100100 x
b1100100 {
b1100100 #"
1!
#70
0!
#75
b1110000 I
b1110000 /
b1110000 y
b1110000 }
b1110000 1
b1110000 d
b1110000 w
b110 H
b110 L
b110 M
b110 ,"
b1101000 3
b1101000 V
b1101000 t
b1110000 0
b1110000 c
b1110000 v
b111 6
b111 '"
b111 5"
b11111111111111111111111111111000 ,
b11111111111111111111111111111000 U
b11111111111111111111111111111000 +"
b111 '
b111 \
b111 g
b111 0"
b1010 ;
b1010 r
b1010 !"
b11111111111111111111111111111110 .
b11111111111111111111111111111110 h
b11111111111111111111111111111110 m
b11111111111111111111111111111110 *"
b11 G
b11 K
b11 9"
b11111 &
b11111 |
b11111 ."
b1110000 )
b1110000 S
b1110000 T
b1110000 s
b1110000 3"
0&"
b11111111111111111111111111111110 7
b11111111111111111111111111111110 l
b11111111111111111111111111111110 )"
b11111111111111111111111111111110 2"
14
b0 :
b0 q
b0 <"
09
b111 E
b111 P
b111 e
b11111 z
b11111 o
b100101010111111111111111000 b
b1111111111111110 5
b1111111111111110 k
b1111111111111110 7"
b1111111111111110 6"
b1111111111111110 ("
b111110 J
b100 8"
b1010 >
b1010 O
b1010 x
b1010 {
b1010 #"
b1001 ""
b10001001010101111111111111110 +
b10001001010101111111111111110 `
b1101100 (
b1101100 R
b1101100 _
b1101100 ~
1!
#80
0!
#85
b10100 I
b10100 /
b10100 y
b10100 }
b10001000 3
b10001000 V
b10001000 t
b1110100 0
b1110100 c
b1110100 v
b0 6
b0 '"
b0 5"
0X
1W
b10100 ,
b10100 U
b10100 +"
0Y
1#
02
b0 '
b0 \
b0 g
b0 0"
b0 ;
b0 r
b0 !"
b10100 1
b10100 d
b10100 w
b101 .
b101 h
b101 m
b101 *"
b0 G
b0 K
b0 9"
b0 8
b0 N
b0 j
b0 -"
b0 &
b0 |
b0 ."
b1110100 )
b1110100 S
b1110100 T
b1110100 s
b1110100 3"
b101 7
b101 l
b101 )"
b101 2"
1C
b10 D
b10 Z
b10 :"
04
b0 E
b0 P
b0 e
b0 z
b0 o
b0 n
b10100 b
b101 5
b101 k
b101 7"
b101 6"
b101 ("
b101 J
b10 8"
b0 =
b0 [
b0 i
b0 %"
b0 $"
b0 >
b0 O
b0 x
b0 {
b0 #"
b0 ""
b1000000000000000000000000101 +
b1000000000000000000000000101 `
b1110000 (
b1110000 R
b1110000 _
b1110000 ~
1!
#90
0!
#95
b1010 6
b1010 '"
b1010 5"
b11000 I
b1010 '
b1010 \
b1010 g
b1010 0"
b11000 /
b11000 y
b11000 }
b10 H
b10 L
b10 M
b10 ,"
b1000000 3
b1000000 V
b1000000 t
b11000 0
b11000 c
b11000 v
1X
0W
1Y
0#
b1010 E
b1010 P
b1010 e
b101000 ,
b101000 U
b101000 +"
02
b1010 8
b1010 N
b1010 j
b1010 -"
b1000 ;
b1000 r
b1000 !"
b11000 1
b11000 d
b11000 w
b1010 .
b1010 h
b1010 m
b1010 *"
b1 G
b1 K
b1 9"
b11000 )
b11000 S
b11000 T
b11000 s
b11000 3"
1&"
b1010 7
b1010 l
b1010 )"
b1010 2"
0C
b0 D
b0 Z
b0 :"
19
1F
b1000 n
b1000000000000000101000 b
b1010 5
b1010 k
b1010 7"
b1010 6"
b1010 ("
b1010 J
b1000 8"
b1000 $"
b100000000010000000000000001010 +
b100000000010000000000000001010 `
b10100 (
b10100 R
b10100 _
b10100 ~
1!
#100
0!
#105
b11100 I
b100 6
b100 '"
b100 5"
b11100 /
b11100 y
b11100 }
b100 '
b100 \
b100 g
b100 0"
b11100 1
b11100 d
b11100 w
b100 E
b100 P
b100 e
b100 8
b100 N
b100 j
b100 -"
b101100 3
b101100 V
b101100 t
b11100 0
b11100 c
b11100 v
b10000 ,
b10000 U
b10000 +"
b1001 ;
b1001 r
b1001 !"
b100 .
b100 h
b100 m
b100 *"
b11100 )
b11100 S
b11100 T
b11100 s
b11100 3"
b100 7
b100 l
b100 )"
b100 2"
b1001 n
b1001000000000000010000 b
b100 5
b100 k
b100 7"
b100 6"
b100 ("
b100 J
b1001 $"
b100000000010010000000000000100 +
b100000000010010000000000000100 `
b11000 (
b11000 R
b11000 _
b11000 ~
b1010 =
b1010 [
b1010 i
b1010 %"
1!
#110
0!
#115
b100000 I
b100000 /
b100000 y
b100000 }
b100000 1
b100000 d
b100000 w
b11 H
b11 L
b11 M
b11 ,"
b11000000010000000 3
b11000000010000000 V
b11000000010000000 t
b100000 0
b100000 c
b100000 v
b101000 6
b101000 '"
b101000 5"
b11000000001100000 ,
b11000000001100000 U
b11000000001100000 +"
b101000 '
b101000 \
b101000 g
b101000 0"
b1100 ;
b1100 r
b1100 !"
b110000000011000 .
b110000000011000 h
b110000000011000 m
b110000000011000 *"
b0 G
b0 K
b0 9"
b100000 )
b100000 S
b100000 T
b100000 s
b100000 3"
b110000000011000 7
b110000000011000 l
b110000000011000 )"
b110000000011000 2"
b1 :
b1 q
b1 <"
0F
b101000 E
b101000 P
b101000 e
b1100 o
b100001001011000000001100000 b
b110000000011000 5
b110000000011000 k
b110000000011000 7"
b110000000011000 6"
b110000000011000 ("
b11000 J
b0 8"
b1010 >
b1010 O
b1010 x
b1010 {
b1010 #"
b1000 ""
b1000010010110000000011000 +
b1000010010110000000011000 `
b11100 (
b11100 R
b11100 _
b11100 ~
b100 =
b100 [
b100 i
b100 %"
1!
#120
0!
#125
b100100 I
b100100 1
b100100 d
b100100 w
b100100 /
b100100 y
b100100 }
b1000100 3
b1000100 V
b1000100 t
b100100 0
b100100 c
b100100 v
b1000 6
b1000 '"
b1000 5"
b100000 ,
b100000 U
b100000 +"
1&"
b1000 '
b1000 \
b1000 g
b1000 0"
b1110 ;
b1110 r
b1110 !"
b1000 .
b1000 h
b1000 m
b1000 *"
0*
b10 H
b10 L
b10 M
b10 ,"
b1 G
b1 K
b1 9"
b1000 8
b1000 N
b1000 j
b1000 -"
b100100 )
b100100 S
b100100 T
b100100 s
b100100 3"
b1000 7
b1000 l
b1000 )"
b1000 2"
b0 :
b0 q
b0 <"
1F
b1000 E
b1000 P
b1000 e
b0 o
b1110 n
b1110000000000000100000 b
b1000 5
b1000 k
b1000 7"
b1000 6"
b1000 ("
b1000 J
b1000 8"
b0 =
b0 [
b0 i
b0 %"
b1110 $"
b0 >
b0 O
b0 x
b0 {
b0 #"
b0 ""
b100000000011100000000000001000 +
b100000000011100000000000001000 `
b100000 (
b100000 R
b100000 _
b100000 ~
1!
#130
0!
#135
b101000 I
b101000 /
b101000 y
b101000 }
b101000 1
b101000 d
b101000 w
b110 H
b110 L
b110 M
b110 ,"
b10000000010110100 3
b10000000010110100 V
b10000000010110100 t
b101000 0
b101000 c
b101000 v
b100000 6
b100000 '"
b100000 5"
b10000000010001100 ,
b10000000010001100 U
b10000000010001100 +"
b100000 '
b100000 \
b100000 g
b100000 0"
b1000 ;
b1000 r
b1000 !"
b100000000100011 .
b100000000100011 h
b100000000100011 m
b100000000100011 *"
b0 G
b0 K
b0 9"
b101000 )
b101000 S
b101000 T
b101000 s
b101000 3"
b100000000100011 7
b100000000100011 l
b100000000100011 )"
b100000000100011 2"
b1 :
b1 q
b1 <"
0F
b100000 E
b100000 P
b100000 e
b1000 o
b110001110010000000010001100 b
b100000000100011 5
b100000000100011 k
b100000000100011 7"
b100000000100011 6"
b100000000100011 ("
b100011 J
b0 8"
b101000 >
b101000 O
b101000 x
b101000 {
b101000 #"
b1100 ""
b1100011100100000000100011 +
b1100011100100000000100011 `
b100100 (
b100100 R
b100100 _
b100100 ~
b1000 =
b1000 [
b1000 i
b1000 %"
1!
#140
0!
#145
b101100 I
b101100 /
b101100 y
b101100 }
b101100 1
b101100 d
b101100 w
b101100 3
b101100 V
b101100 t
b101100 0
b101100 c
b101100 v
b0 6
b0 '"
b0 5"
1X
0W
b0 ,
b0 U
b0 +"
b0 $
b0 f
b0 /"
b0 '
b0 \
b0 g
b0 0"
b1001 ;
b1001 r
b1001 !"
b0 .
b0 h
b0 m
b0 *"
0B
b10 H
b10 L
b10 M
b10 ,"
b1 G
b1 K
b1 9"
b0 8
b0 N
b0 j
b0 -"
b101100 )
b101100 S
b101100 T
b101100 s
b101100 3"
b0 7
b0 l
b0 )"
b0 2"
b0 :
b0 q
b0 <"
1F
b0 E
b0 P
b0 e
b0 o
b1001 n
b1001000000000000000000 b
b0 5
b0 k
b0 7"
b0 6"
b0 ("
b0 J
b1000 8"
b100 =
b100 [
b100 i
b100 %"
b1001 $"
b0 >
b0 O
b0 x
b0 {
b0 #"
b0 ""
b100000000010010000000000000000 +
b100000000010010000000000000000 `
b101000 (
b101000 R
b101000 _
b101000 ~
1!
#150
0!
#155
b110000 I
b110000 /
b110000 y
b110000 }
b110000 1
b110000 d
b110000 w
b100 8
b100 N
b100 j
b100 -"
b1000000 3
b1000000 V
b1000000 t
b110000 0
b110000 c
b110000 v
b10000 ,
b10000 U
b10000 +"
b11 6
b11 '"
b11 5"
b100100 '
b100100 \
b100100 g
b100100 0"
b1010 ;
b1010 r
b1010 !"
b100 .
b100 h
b100 m
b100 *"
b110000 )
b110000 S
b110000 T
b110000 s
b110000 3"
b11 <
b11 ]
b11 1"
b100 7
b100 l
b100 )"
b100 2"
b1 @
b1 4"
b1 ;"
1A
b100100 E
b100100 P
b100100 e
b1010 n
b100001010000000000000010000 b
b100 5
b100 k
b100 7"
b100 6"
b100 ("
b100 J
b100011 8"
b1010 $"
b100000 >
b100000 O
b100000 x
b100000 {
b100000 #"
b1000 ""
b10001101000010100000000000000100 +
b10001101000010100000000000000100 `
b101100 (
b101100 R
b101100 _
b101100 ~
b11 =
b11 [
b11 i
b11 %"
1!
#160
0!
#165
b110100 I
b1 6
b1 '"
b1 5"
b110100 /
b110100 y
b110100 }
b1 <
b1 ]
b1 1"
b100000 '
b100000 \
b100000 g
b100000 0"
b110100 1
b110100 d
b110100 w
b100000 E
b100000 P
b100000 e
b0 8
b0 N
b0 j
b0 -"
b110100 3
b110100 V
b110100 t
b110100 0
b110100 c
b110100 v
b0 ,
b0 U
b0 +"
b1011 ;
b1011 r
b1011 !"
b0 .
b0 h
b0 m
b0 *"
b110100 )
b110100 S
b110100 T
b110100 s
b110100 3"
b0 7
b0 l
b0 )"
b0 2"
b1011 n
b100001011000000000000000000 b
b0 5
b0 k
b0 7"
b0 6"
b0 ("
b0 J
b1100100 =
b1100100 [
b1100100 i
b1100100 %"
b1011 $"
b10001101000010110000000000000000 +
b10001101000010110000000000000000 `
b110000 (
b110000 R
b110000 _
b110000 ~
1!
#170
0!
#175
b111000 I
b111000 /
b111000 y
b111000 }
0X
1W
b111000 1
b111000 d
b111000 w
b110 H
b110 L
b110 M
b110 ,"
b10000011000100 3
b10000011000100 V
b10000011000100 t
b111000 0
b111000 c
b111000 v
b10000010001100 ,
b10000010001100 U
b10000010001100 +"
b11111111111111111111111111111110 6
b11111111111111111111111111111110 '"
b11111111111111111111111111111110 5"
b11 8
b11 N
b11 j
b11 -"
b11111111111111111111111111111110 '
b11111111111111111111111111111110 \
b11111111111111111111111111111110 g
b11111111111111111111111111111110 0"
b1 ;
b1 r
b1 !"
b100000100011 .
b100000100011 h
b100000100011 m
b100000100011 *"
b0 G
b0 K
b0 9"
b111000 )
b111000 S
b111000 T
b111000 s
b111000 3"
b100000100011 7
b100000100011 l
b100000100011 )"
b100000100011 2"
b0 @
b0 4"
b0 ;"
0A
b1 :
b1 q
b1 <"
0F
b11111111111111111111111111111110 E
b11111111111111111111111111111110 P
b11111111111111111111111111111110 e
b1 o
b1010 n
b101101010000010000010001100 b
b100000100011 5
b100000100011 k
b100000100011 7"
b100000100011 6"
b100000100011 ("
b100011 J
b0 8"
b1010 $"
b1 >
b1 O
b1 x
b1 {
b1 #"
b1011 ""
b1011010100000100000100011 +
b1011010100000100000100011 `
b110100 (
b110100 R
b110100 _
b110100 ~
b11 =
b11 [
b11 i
b11 %"
1!
#180
0!
#185
b111100 I
b111100 /
b111100 y
b111100 }
0u
02
b111100 1
b111100 d
b111100 w
0X
1W
b1001000 3
b1001000 V
b1001000 t
b111100 0
b111100 c
b111100 v
b11111111111111111111111111111110 6
b11111111111111111111111111111110 '"
b11111111111111111111111111111110 5"
b1100 ,
b1100 U
b1100 +"
b11111111111111111111111111111110 '
b11111111111111111111111111111110 \
b11111111111111111111111111111110 g
b11111111111111111111111111111110 0"
b0 ;
b0 r
b0 !"
b11 .
b11 h
b11 m
b11 *"
0B
b110 H
b110 L
b110 M
b110 ,"
b11 G
b11 K
b11 9"
b0 8
b0 N
b0 j
b0 -"
b111100 )
b111100 S
b111100 T
b111100 s
b111100 3"
0&"
b11 7
b11 l
b11 )"
b11 2"
b10 D
b10 Z
b10 :"
14
b0 :
b0 q
b0 <"
09
b11111111111111111111111111111110 E
b11111111111111111111111111111110 P
b11111111111111111111111111111110 e
b0 o
b0 n
b100000000000000000001100 b
b11 5
b11 k
b11 7"
b11 6"
b11 ("
b11 J
b111 8"
b0 =
b0 [
b0 i
b0 %"
b0 $"
b11111111111111111111111111111110 >
b11111111111111111111111111111110 O
b11111111111111111111111111111110 x
b11111111111111111111111111111110 {
b11111111111111111111111111111110 #"
b1 ""
b11100001000000000000000000011 +
b11100001000000000000000000011 `
b111000 (
b111000 R
b111000 _
b111000 ~
1!
#190
0!
